<svg xmlns="http://www.w3.org/2000/svg" width="35" height="35" viewBox="0 0 35 35">
    <g fill="none" fill-rule="evenodd" transform="translate(1 1)">
        <path stroke="#45B4D8" stroke-linejoin="round" stroke-width="3" d="M13 22l7-5.5-7-5.5"/>
        <circle cx="16.5" cy="16.5" r="16.5" stroke="#C4C4C4"/>
    </g>
</svg>
