<svg xmlns="http://www.w3.org/2000/svg" width="26" height="31" viewBox="0 0 26 31">
    <g fill="none" fill-rule="evenodd">
        <path fill="#FFF" fill-rule="nonzero" d="M23.712 18.82L6.354 30.22A3.773 3.773 0 0 1 .51 27.068V4.265A3.773 3.773 0 0 1 6.354 1.11l17.358 11.402a3.773 3.773 0 0 1 0 6.307z"/>
    </g>
</svg>
