<svg xmlns="http://www.w3.org/2000/svg" width="246" height="30" viewBox="0 0 246 30">
    <path fill="#6F6F6F" fill-rule="evenodd" d="M42.856 18.793a3.163 3.163 0 0 0 3.171-2.347l3.282 1.102c-.611 2.316-2.771 4.687-6.444 4.687-4.08 0-7.265-3.113-7.265-7.385s3.142-7.379 7.153-7.379c3.759 0 5.877 2.348 6.48 4.7l-3.339 1.132c-.35-1.147-1.208-2.333-3.059-2.333-1.907-.018-3.506 1.37-3.506 3.89 0 2.516 1.628 3.933 3.527 3.933zM58.81 7.839l-.01 3.795a5.542 5.542 0 0 0-1.122-.113c-1.907 0-3.561.934-3.561 3.934v6.365h-3.733V7.887h3.618V9.96c.84-1.84 2.748-2.179 3.925-2.179.296.004.59.023.883.057zm6.553-.377c4.264 0 6.817 2.746 6.817 7.216 0 .537-.056 1.104-.056 1.16H62.25c.086 1.841 1.629 3.17 3.48 3.17 1.74 0 2.692-.89 3.142-2.124l3.12.946c-.708 2.407-2.898 4.404-6.291 4.404-3.789 0-7.127-2.744-7.127-7.443 0-4.447 3.254-7.33 6.789-7.33zm-3.036 5.812h6.17c-.055-1.388-.954-2.747-3.085-2.747a2.996 2.996 0 0 0-3.085 2.747zm5.057-7.048h-3.032l-3.82-4.245h4.32l2.532 4.245zm22.151 1.266c2.553 0 4.996 1.557 4.996 5.292v9.036h-3.635v-8.262c0-1.501-.729-2.633-2.44-2.633-1.598 0-2.553 1.245-2.553 2.745v8.15H82.2v-8.262c0-1.501-.757-2.633-2.439-2.633-1.627 0-2.58 1.218-2.58 2.745v8.15h-3.72V7.887h3.562v1.698c.758-1.357 2.524-2.093 4.04-2.093 1.88 0 3.395.821 4.097 2.321 1.093-1.698 2.553-2.32 4.375-2.32zm12.833-.03c4.264 0 6.818 2.746 6.818 7.216 0 .537-.056 1.104-.056 1.16h-9.875c.086 1.841 1.629 3.17 3.48 3.17 1.74 0 2.692-.89 3.142-2.124l3.115.946c-.702 2.407-2.89 4.404-6.286 4.404-3.788 0-7.126-2.744-7.126-7.443 0-4.447 3.253-7.33 6.788-7.33zm-3.027 5.81h6.172c-.057-1.386-.956-2.745-3.086-2.745a2.996 2.996 0 0 0-3.086 2.746zm28.954-11.94l-.003 17.972c0 .933.056 1.953.112 2.519h-3.562a9.766 9.766 0 0 1-.14-1.612c-.618 1.102-2.02 1.953-3.87 1.953-3.927 0-6.733-3.113-6.733-7.33 0-4.075 2.721-7.271 6.62-7.271 2.383 0 3.506.99 3.9 1.725V1.332h3.676zm-7.016 17.46c1.907 0 3.393-1.482 3.393-3.99 0-2.506-1.487-3.876-3.394-3.876-1.908 0-3.42 1.413-3.42 3.898 0 2.483 1.445 3.968 3.42 3.969zm15.12-11.33c4.264 0 6.818 2.746 6.818 7.216 0 .537-.056 1.104-.056 1.16h-9.873c.084 1.841 1.628 3.17 3.479 3.17 1.739 0 2.691-.89 3.141-2.124l3.115.946c-.702 2.407-2.891 4.404-6.286 4.404-3.787 0-7.126-2.744-7.126-7.443 0-4.447 3.254-7.33 6.788-7.33zm-3.027 5.81h6.172c-.056-1.386-.955-2.745-3.085-2.745a2.996 2.996 0 0 0-3.087 2.746zm15.796 8.549V1.332h3.733v20.489h-3.733zm17.32-9.056v6.85c.003.738.06 1.477.167 2.208h-3.431a9.417 9.417 0 0 1-.137-1.663c-.701 1.103-2.018 2.074-4.067 2.074-2.938 0-4.739-2.009-4.739-4.188-.009-2.508 1.816-3.895 4.105-4.233l3.394-.51c.785-.113 1.037-.51 1.037-.99 0-.99-.758-1.812-2.327-1.812-1.628 0-2.523 1.047-2.644 2.264l-3.28-.708c.223-2.178 2.216-4.583 5.917-4.583 4.377 0 6.005 2.49 6.005 5.291zm-6.7 6.648c1.584 0 3.04-.762 3.04-3.223l-.01-.006v-.619l-3.116.48c-.952.142-1.71.68-1.71 1.756 0 .82.588 1.612 1.796 1.612zm19.67-.62a3.163 3.163 0 0 0 3.172-2.347l3.281 1.102c-.611 2.316-2.77 4.687-6.443 4.687-4.068 0-7.271-3.104-7.271-7.376s3.145-7.388 7.159-7.388c3.758 0 5.877 2.348 6.464 4.7l-3.338 1.132c-.335-1.147-1.207-2.333-3.056-2.333-1.896-.018-3.493 1.37-3.493 3.89 0 2.516 1.628 3.933 3.526 3.933zm15.945-10.954l.009 3.795a5.54 5.54 0 0 0-1.122-.113c-1.916-.002-3.58.93-3.58 3.931v6.368h-3.732V7.887h3.618V9.96c.84-1.84 2.747-2.179 3.925-2.179.295.004.59.023.882.057zm6.562-.377c4.264 0 6.817 2.746 6.817 7.216 0 .537-.055 1.104-.055 1.16h-9.874c.085 1.841 1.629 3.17 3.48 3.17 1.739 0 2.691-.89 3.14-2.124l3.116.946c-.702 2.407-2.892 4.404-6.286 4.404-3.788 0-7.126-2.744-7.126-7.443 0-4.447 3.254-7.33 6.788-7.33zm-3.027 5.81h6.172c-.056-1.386-.956-2.745-3.086-2.745a2.996 2.996 0 0 0-3.086 2.746zm5.05-7.046h-3.03l-3.83-4.245h4.32l2.54 4.245zm22.135 1.266c2.554 0 4.996 1.557 4.996 5.292v9.036h-3.624v-8.262c0-1.501-.729-2.633-2.439-2.633-1.598 0-2.554 1.245-2.554 2.745v8.15H218.8v-8.262c0-1.501-.758-2.633-2.438-2.633-1.629 0-2.58 1.218-2.58 2.745v8.15h-3.733V7.887h3.561v1.698c.758-1.357 2.524-2.093 4.042-2.093 1.88 0 3.393.821 4.096 2.321 1.092-1.698 2.554-2.32 4.375-2.32zm19.665 7.186c0 .537-.056 1.104-.056 1.16h-9.874c.086 1.841 1.628 3.17 3.48 3.17 1.74 0 2.692-.89 3.141-2.124l3.112.946c-.698 2.407-2.888 4.404-6.283 4.404-3.788 0-7.125-2.744-7.125-7.443 0-4.447 3.253-7.33 6.788-7.33 4.264 0 6.817 2.747 6.817 7.217zm-9.844-1.405h6.171c-.056-1.387-.952-2.746-3.086-2.746a2.996 2.996 0 0 0-3.085 2.746zM14.452 0c7.98 0 14.452 6.528 14.452 14.58 0 8.053-6.471 14.58-14.452 14.58C6.47 29.16 0 22.634 0 14.58 0 6.528 6.47 0 14.452 0zm7.328 9.976l.003-1.527a.331.331 0 0 0-.188-.296 14.874 14.874 0 0 0-2.13-.972 13.614 13.614 0 0 0-4.725-.928h-.539c-1.616.026-3.216.34-4.724.928-.735.266-1.447.59-2.131.969a.331.331 0 0 0-.189.296v4.62a.05.05 0 0 0 .054.047l2.075-.374a.195.195 0 0 0 .161-.193V9.693a.33.33 0 0 1 .156-.298 11.43 11.43 0 0 1 9.74 0 .329.329 0 0 1 .157.298v1.184c.002.028.026.05.053.048l2.186-.389a.05.05 0 0 0 .041-.047v-.513zm-.032 2.889v-.001a.05.05 0 0 0-.053-.048l-2.074.371a.196.196 0 0 0-.162.193v1.444c.003.651-.12 1.299-.362 1.903-1.234 2.95-3.855 4.323-4.558 4.67a.315.315 0 0 1-.24 0c-.688-.344-3.31-1.702-4.54-4.667a5.071 5.071 0 0 1-.356-1.607.098.098 0 0 0-.1-.095l-2.11.377a.052.052 0 0 0-.041.053c.04.411.115.82.223 1.218v.024c.137.486.323.955.556 1.402a10.822 10.822 0 0 0 6.397 5.69.32.32 0 0 0 .185 0 10.822 10.822 0 0 0 6.421-5.69c.231-.447.415-.918.55-1.405v-.023a7.454 7.454 0 0 0 .259-1.898v-1.185l.005-.726z"/>
</svg>
