<svg xmlns="http://www.w3.org/2000/svg" width="38" height="38" viewBox="0 0 38 38">
    <path fill="#FFF" fill-rule="nonzero" d="M23 17.671v3.137h-2.371V28h-3.883v-7.192H15v-3.137h1.746v-3.023c0-2.623 2.032-4.648 4.43-4.648h1.772v3.65H21.67c-.651 0-1.042.57-1.042 1.483v2.538H23zM19 1.25C9.197 1.25 1.25 9.197 1.25 19S9.197 36.75 19 36.75 36.75 28.803 36.75 19 28.803 1.25 19 1.25zm0-.5C29.08.75 37.25 8.92 37.25 19S29.08 37.25 19 37.25.75 29.08.75 19 8.92.75 19 .75z"/>
</svg>
