<svg xmlns="http://www.w3.org/2000/svg" width="74" height="74" viewBox="0 0 74 74">
    <g fill="none" fill-rule="evenodd" stroke="#000" stroke-linecap="round" stroke-linejoin="round">
        <path d="M73 37c0 19.882-16.118 36-36 36S1 56.882 1 37C1 17.117 17.118 1 37 1s36 16.117 36 36zM50 8c7.238 3.38 12.991 9.474 16 17M43 5c.677.237 1.343.522 2 .854M5 73h63"/>
        <path fill="#F86649" d="M22 57.082c0-1.038.576-1.976 1.476-2.52 3.59-2.164 6.508-5.961 6.508-10.323 0-1.287-.045-2.385-.27-3.719h-4.037c-1.671 0-3.026-1.332-3.026-2.974 0-1.644 1.355-2.976 3.026-2.976h3.04c-.336-1.895-.663-4.192-.663-6.47 0-8.504 6.141-14.1 14.908-14.1 2.102 0 3.876.257 5.303.636 1.582.418 2.533 1.997 2.154 3.565l-.183.761c-.388 1.602-2.015 2.546-3.653 2.204a16.04 16.04 0 0 0-3.271-.316c-5.264 0-7.12 3.44-7.12 7.519 0 2.33.321 4.246.73 6.201h6.9c1.671 0 3.026 1.332 3.026 2.976 0 1.642-1.355 2.974-3.025 2.974h-6.125c.117 2.122.096 4.207-.481 6.21-.72 2.327-2.092 4.38-4.085 6.102v.139h16.842c1.672 0 3.026 1.332 3.026 2.974v1.08C53 58.67 51.646 60 49.974 60H24.968C23.328 60 22 58.694 22 57.082z"/>
    </g>
</svg>
