<svg xmlns="http://www.w3.org/2000/svg" width="15" height="15" viewBox="0 0 15 15">
    <path fill="#FFF" fill-rule="nonzero" d="M2.29 12.895a7.5 7.5 0 1 1 10.42-10.79 7.5 7.5 0 0 1-10.42 10.79zm9.547-1.058a6.003 6.003 0 1 0-8.49-8.49 6.003 6.003 0 0 0 8.49 8.49zM6.842 8.342v-1.5h1.5v4.5h-1.5v-3zm0-4.5h1.5v1.5h-1.5v-1.5z"/>
</svg>
