<?xml version="1.0" encoding="UTF-8"?>
<svg width="20px" height="20px" viewBox="0 0 20 20" version="1.1" xmlns="http://www.w3.org/2000/svg" xmlns:xlink="http://www.w3.org/1999/xlink">
    <!-- Generator: Sketch 51.2 (57519) - http://www.bohemiancoding.com/sketch -->
    <title>instagram </title>
    <desc>Created with Sketch.</desc>
    <defs></defs>
    <g id="Page-1" stroke="none" stroke-width="1" fill="none" fill-rule="evenodd">
        <g id="Home-page" transform="translate(-1230.000000, -4157.000000)" fill="#9B9B9B" fill-rule="nonzero">
            <g id="footer" transform="translate(-1.000000, 4109.000000)">
                <g id="instagram-" transform="translate(1231.000000, 48.000000)">
                    <path d="M13.75,0 L6.25,0 C2.79875,0 0,2.79875 0,6.25 L0,13.75 C0,17.20125 2.79875,20 6.25,20 L13.75,20 C17.20125,20 20,17.20125 20,13.75 L20,6.25 C20,2.79875 17.20125,0 13.75,0 Z M18.125,13.75 C18.125,16.1625 16.1625,18.125 13.75,18.125 L6.25,18.125 C3.8375,18.125 1.875,16.1625 1.875,13.75 L1.875,6.25 C1.875,3.8375 3.8375,1.875 6.25,1.875 L13.75,1.875 C16.1625,1.875 18.125,3.8375 18.125,6.25 L18.125,13.75 Z" id="Shape"></path>
                    <path d="M10.2564103,5.12820513 C7.42435897,5.12820513 5.12820513,7.42435897 5.12820513,10.2564103 C5.12820513,13.0884615 7.42435897,15.3846154 10.2564103,15.3846154 C13.0884615,15.3846154 15.3846154,13.0884615 15.3846154,10.2564103 C15.3846154,7.42435897 13.0884615,5.12820513 10.2564103,5.12820513 Z M10.2564103,13.4615385 C8.48974359,13.4615385 7.05128205,12.0230769 7.05128205,10.2564103 C7.05128205,8.48846154 8.48974359,7.05128205 10.2564103,7.05128205 C12.0230769,7.05128205 13.4615385,8.48846154 13.4615385,10.2564103 C13.4615385,12.0230769 12.0230769,13.4615385 10.2564103,13.4615385 Z" id="Shape"></path>
                    <circle id="Oval" cx="15.6410256" cy="4.87179487" r="1"></circle>
                </g>
            </g>
        </g>
    </g>
</svg>