<svg xmlns="http://www.w3.org/2000/svg" width="114" height="114" viewBox="0 0 114 114">
    <path fill="#F76649" fill-rule="evenodd" d="M57.034 56.126c4.155-.214 7.472-3.58 7.472-7.69v-8.273H80v8.273c0 5.867-2.279 11.223-6.018 15.27C77.721 67.746 80 73.095 80 78.958V93H64.505V78.958c0-4.215-3.49-7.648-7.798-7.698h-.093-.001v-.041c-2.49-.08-4.882-.541-7.117-1.324V93H34V48.584 22h15.495v26.522c.047 4.09 3.38 7.424 7.539 7.604zm18.249-29.18c2.6 0 4.717 2.063 4.717 4.605v5.025h-3.273V31.55c0-.78-.65-1.412-1.444-1.412-.795 0-1.442.632-1.442 1.412v5.025h-3.27V31.55c0-.78-.648-1.412-1.442-1.412-.797 0-1.442.632-1.442 1.412v5.025h-3.273V31.55c0-2.542 2.118-4.604 4.715-4.604 1.189 0 2.245.469 3.077 1.182.83-.713 1.887-1.182 3.077-1.182zM57 113.8C25.63 113.8.2 88.37.2 57 .2 25.63 25.63.2 57 .2c31.37 0 56.8 25.43 56.8 56.8 0 31.37-25.43 56.8-56.8 56.8zm0-3.6c29.382 0 53.2-23.818 53.2-53.2S86.382 3.8 57 3.8 3.8 27.618 3.8 57s23.818 53.2 53.2 53.2z"/>
</svg>
