<svg xmlns="http://www.w3.org/2000/svg" width="39" height="27" viewBox="0 0 39 27">
    <g fill="none" fill-rule="evenodd">
        <path stroke="#4A4A4A" stroke-linecap="round" stroke-linejoin="round" stroke-width=".5" d="M29.721 25.931H9.473l3.951-12.55H25.77zM8.692 13.176a2.595 2.595 0 1 1-5.19 0 2.595 2.595 0 1 1 5.19 0zM.5 23.106a5.597 5.597 0 0 1 9.274-4.22M35.142 13.176a2.595 2.595 0 1 1-5.19 0 2.595 2.595 0 0 1 5.19 0zM29.38 18.49a5.597 5.597 0 0 1 8.764 4.616"/>
        <path fill="#FFF" d="M11.606.5h15.981"/>
        <path stroke="#4A4A4A" stroke-linecap="round" stroke-linejoin="round" stroke-width=".5" d="M11.606.5h15.981M12.366 10.377V.5M18.228 8.463V5.87M26.95 10.377V.5M11.606 10.377h15.981M20.35 8.463V3.587M22.472 8.463V6.92M16.105 8.463V3.957"/>
    </g>
</svg>
