<svg xmlns="http://www.w3.org/2000/svg" width="74" height="74" viewBox="0 0 74 74">
    <path fill="#2F374B" fill-rule="nonzero" d="M37 73.5C16.842 73.5.5 57.158.5 37S16.842.5 37 .5 73.5 16.842 73.5 37 57.158 73.5 37 73.5zm0-3c18.502 0 33.5-14.998 33.5-33.5C70.5 18.498 55.502 3.5 37 3.5 18.498 3.5 3.5 18.498 3.5 37c0 18.502 14.998 33.5 33.5 33.5zm-4.44-26.303a1.5 1.5 0 0 1-2.12 0l-6.319-6.318a3 3 0 0 0-4.242 4.242l9.5 9.5a3 3 0 0 0 4.242 0l20.5-20.5a3 3 0 1 0-4.242-4.242L32.56 44.197zm15.197-19.44a6 6 0 1 1 8.486 8.486l-20.5 20.5a6 6 0 0 1-8.486 0l-9.5-9.5a6 6 0 1 1 8.486-8.486l5.257 5.258 16.257-16.258z"/>
</svg>
