<svg xmlns="http://www.w3.org/2000/svg" width="104" height="40" viewBox="0 0 104 40">
    <path fill="#6F6F6F" fill-rule="evenodd" d="M93.92 24.698c0 2.02-.02 4.038.006 6.057.025 1.97.39 3.864 1.514 5.521 1.11 1.636 3.075 2.321 4.842 1.746.87-.283 1.424-.848 1.417-1.805-.007-.924-.081-1.786-1.215-2.154-1.546-.502-2.171-1.843-2.2-3.331-.085-4.235-.049-8.471-.04-12.707.002-.742.305-1.237 1.137-1.393 1.207-.228 1.743-.974 1.73-2.156-.014-1.168-.627-1.909-1.72-2.054-.981-.132-1.203-.617-1.177-1.511.048-1.661.029-3.325.01-4.988-.02-1.653-.782-2.546-2.135-2.557-1.35-.01-2.13.873-2.162 2.527A116.82 116.82 0 0 0 93.914 11c.018.787-.141 1.285-.912 1.696-1.38.737-1.402 2.824-.037 3.622.785.46.96 1.05.958 1.847-.01 2.178-.004 4.356-.003 6.533zm-3.776.485v-5.461c.001-1.702.047-3.405-.01-5.105-.06-1.825-1.31-2.787-2.875-2.26-1.216.41-1.44 1.432-1.44 2.57.002 4.788.005 9.576-.006 14.366-.002.467.057 1.06-.188 1.372-.395.502-1.06 1.175-1.536 1.118-.564-.066-1.115-.775-1.537-1.313-.198-.256-.097-.765-.099-1.16-.018-4.59-.027-9.18-.046-13.771-.002-.513-.006-1.034-.095-1.536-.223-1.255-1.12-1.893-2.366-1.741-1.224.149-1.857 1.001-1.858 2.571-.008 5.898-.039 11.794.024 17.69.012 1.203.246 2.453.636 3.59.75 2.187 2.683 2.763 4.613 1.5.357-.234.674-.538.982-.839.956-.934 1.005-.845 1.77.256.391.563 1.19 1.095 1.837 1.138.595.04 1.385-.465 1.806-.973.346-.416.369-1.187.374-1.802.032-3.403.016-6.807.014-10.21zM76.16 20.335c-.23-2.598-.368-5.209-.715-7.79-.372-2.76-1.112-5.438-2.84-7.695-2.532-3.306-6.26-3.327-8.59.13a16 16 0 0 0-2.284 5.268c-1.504 6.565-1.449 13.193-.14 19.795.473 2.387 1.332 4.642 3.047 6.445 2.246 2.36 5.031 2.375 7.318.055 1.452-1.471 2.244-3.316 2.813-5.268 1.038-3.565 1.249-7.234 1.391-10.94zm8.92 17.95c-.905.426-1.707.956-2.586 1.187-2.269.596-4.115-.262-4.901-2.496-.54-1.534-.65-3.227-.905-4.857-.082-.526-.012-1.076-.202-1.654-.216.696-.326 1.45-.667 2.076-.953 1.749-1.757 3.672-3.065 5.11-2.588 2.848-6.323 2.7-9.02-.057-2-2.045-2.976-4.629-3.52-7.377-1.379-6.958-1.44-13.939.312-20.826.512-2.013 1.48-4.05 2.724-5.7 2.766-3.664 7.186-3.6 10.153-.098 1.838 2.169 2.654 4.804 3.227 7.538.103.49.195.982.252 1.267.89-.512 1.717-1.233 2.663-1.478 2.067-.538 3.878.756 4.155 2.903.171 1.325.114 2.683.121 4.027.02 3.682.017 7.363.03 11.045.002.468.049.936.075 1.404.103.012.206.024.31.034.06-.487.169-.974.17-1.461.014-4.711-.014-9.423.02-14.134.02-2.847 2.112-4.552 4.635-3.755.74.234 1.37.83 2.136 1.315 1.107-.542 1.48-1.58 1.35-2.97-.11-1.177-.041-2.374-.02-3.56.043-2.34 1.461-3.836 3.588-3.816 2.076.02 3.468 1.5 3.51 3.773.026 1.425.027 2.851-.005 4.276-.013.613.083.987.757 1.236 1.487.55 2.16 1.74 2.135 3.334-.026 1.53-.677 2.697-2.107 3.25-.638.246-.793.572-.788 1.213.027 3.642.004 7.284.02 10.927.005 1.383.316 2.488 1.878 3.018 1.432.487 1.613 1.906 1.607 3.264-.008 1.476-.771 2.454-2.075 3.009-2.341.995-5.28.05-6.829-2.2-1.303-1.896-1.675-4.07-1.687-6.32-.02-3.999-.015-7.997.004-11.995.002-.683-.053-1.247-.972-1.422v2.532c0 5.106-.015 10.214.009 15.322.008 1.764-.286 3.384-2.05 4.17-1.74.774-3.28.288-4.441-1.055zM56.437 21.992c-.292-2.798-.7-5.536-2.269-7.92-1.663-2.527-4.43-2.836-6.436-.6-.949 1.057-1.693 2.381-2.243 3.706-1.426 3.428-1.692 7.057-1.326 10.727.302 3.03 1.018 5.935 3.011 8.345 2.6 3.141 6.878 2.37 8.269-1.49.324-.901.435-1.81-.377-2.513-.866-.75-1.501-.071-2.141.45-.092.075-.191.138-.29.202-1.387.878-2.98.445-3.376-1.158-.3-1.216-.229-2.57-.095-3.84.103-.987.85-1.557 1.901-1.583.858-.02 1.715-.08 2.573-.106 1.41-.042 2.096-.513 2.463-1.888.2-.753.23-1.553.336-2.332zm-33.982 3.23h.01c0 3.366-.003 6.732.004 10.098.002.431.008.877.102 1.295.24 1.07.956 1.612 2.02 1.626 1.063.012 1.804-.509 2.06-1.573.118-.491.12-1.02.121-1.531.008-4.077-.03-8.156.024-12.234.016-1.133.192-2.292.499-3.38.126-.452.785-1.038 1.203-1.038.41 0 1.084.604 1.183 1.047.309 1.378.525 2.802.551 4.212.07 3.84.022 7.681.026 11.522.002 2.047.667 3.015 2.034 2.978 1.313-.035 1.94-.98 1.941-2.964.006-4.08-.034-8.158.025-12.235.018-1.21.205-2.445.514-3.614.117-.439.78-.96 1.233-1 .351-.032 1 .563 1.104.985.31 1.254.552 2.557.576 3.846.074 3.958.032 7.919.037 11.878 0 .356-.013.715.027 1.067.148 1.306.95 2.055 2.156 2.04 1.16-.015 1.925-.733 2.09-1.982.031-.234.033-.474.033-.712.002-5.899.008-11.798-.01-17.698 0-.626-.056-1.276-.223-1.876-.45-1.608-1.142-3.146-2.887-3.596-1.7-.438-2.867.704-3.935 1.847-1.04 1.112-1.269 1.09-1.96-.277-.804-1.589-1.904-1.984-3.472-1.207-.488.242-.948.553-1.39.874-.827.598-1.515.793-2.043-.389-.337-.755-1.055-1.228-1.817-.914-.647.265-1.228.846-1.664 1.423-.242.319-.164.915-.165 1.386-.012 3.365-.007 6.73-.007 10.096zm5.906-4.552c-.063.841-.176 1.683-.18 2.526-.017 4.196.003 8.393-.01 12.59-.006 2.156-1.187 3.63-3.051 3.862-2.328.293-4.025-1.276-4.038-3.797-.02-3.999-.002-7.997-.002-11.996 0-3.127-.036-6.255.005-9.382.034-2.56 2.157-4.262 4.398-3.502.701.239 1.288.825 1.98 1.287 3.638-1.894 4.6-1.822 6.702.628 1.913-1.617 3.97-3.03 6.459-1.242 2.112 1.517 2.79 3.808 2.964 6.39.155-.374.272-.77.471-1.116.882-1.524 1.574-3.232 2.727-4.507 2.53-2.798 6.334-2.451 8.421.701 2.173 3.284 2.823 7.026 2.4 10.9-.274 2.52-1.707 3.587-4.24 3.613-.43.006-.868-.026-1.286.05-.6.107-1.556-.204-1.61.746-.058 1.058.166 2.137.348 3.192.018.106.61.19.912.138.24-.041.458-.287.663-.468.903-.799 1.904-1.112 3.017-.526 1.194.629 1.778 1.702 1.648 3.034-.239 2.436-1.53 4.223-3.683 5.272-2.108 1.028-4.316.974-6.001-.708-1.328-1.324-2.236-3.084-3.307-4.665-.208-.307-.309-.688-.647-1.003 0 1.084.02 2.167-.004 3.25-.052 2.269-1.452 3.73-3.544 3.73-2.088.002-3.525-1.47-3.542-3.731-.03-4.156.002-8.313-.021-12.47-.007-.935-.132-1.87-.202-2.807l-.313-.011c-.051.763-.142 1.524-.146 2.286-.014 3.998-.007 7.997-.007 11.996 0 .317.007.633-.004.95-.079 2.346-1.439 3.827-3.474 3.787-1.975-.04-3.291-1.524-3.307-3.824-.025-3.602-.006-7.205-.006-10.808v-4.353l-.49-.012zM6.568 24.122l.001 9.14c0 .95-.038 1.902.026 2.848.09 1.373.934 2.164 2.177 2.139 1.195-.026 1.967-.8 2.082-2.119.034-.392.019-.79.019-1.185 0-7.32.024-14.64-.012-21.96-.013-2.396.728-4.164 3.195-4.85.474-.133.953-.4 1.322-.73.288-.258.555-.7.58-1.076.074-1.103.043-2.215.012-3.322-.027-.991-.572-1.561-1.544-1.567-3.786-.022-7.57-.02-11.355-.005-1.038.005-1.57.612-1.609 1.645-.028.75.076 1.514-.027 2.251-.213 1.516.54 2.377 1.828 2.745 2.614.748 3.377 2.584 3.324 5.126-.076 3.638-.02 7.28-.019 10.92zm-1.398.02c-.001-3.76.009-7.52-.004-11.282-.008-2.19-.267-2.511-2.235-3.364-2.2-.954-3.118-1.758-2.9-4.37C.095 4.38.018 3.62.051 2.87.122 1.271 1.221.06 2.796.038 6.74-.014 10.682-.01 14.625.033c1.542.017 2.65 1.143 2.732 2.703.07 1.302.092 2.616-.009 3.914-.04.539-.368 1.126-.729 1.548-.368.432-.897.872-1.425.989-2.666.593-2.991 2.453-2.96 4.823.093 7.243.04 14.488.03 21.731-.004 2.26-1.184 3.713-3.111 3.914-2.285.24-3.954-1.3-3.974-3.756-.032-3.92-.009-7.838-.01-11.758zm13.653 1.091c0-3.48.01-6.959-.004-10.439-.007-1.439-.515-2.212-1.546-2.472-1.56-.393-2.735.541-2.742 2.308-.026 7.078-.014 14.155 0 21.233 0 .386.08.797.226 1.151.573 1.385 2.612 1.731 3.479.524.378-.527.552-1.312.563-1.984.054-3.44.024-6.88.024-10.32zm-5.698-.17c0-3.52-.03-7.04.01-10.558.029-2.647 2.142-4.243 4.607-3.552 1.54.432 2.47 1.795 2.475 3.73.014 5.218.005 10.438.005 15.658 0 1.818.015 3.637-.004 5.456-.025 2.367-1.39 3.854-3.516 3.872-2.175.016-3.567-1.496-3.576-3.931-.012-3.558-.002-7.117-.001-10.676zm55.213 5.174c1.856-2.451 1.867-17.24.015-19.984-1.862 2.634-1.872 17.324-.015 19.984zm-3.01-9.5c.29-3.135.515-5.81.799-8.48.073-.7.296-1.388.499-2.067.256-.861.754-1.482 1.737-1.47.986.01 1.558.641 1.69 1.513.407 2.686.863 5.378 1.022 8.085.217 3.71.153 7.434-.734 11.082-.415 1.707-1.044 2.467-2.016 2.394-1.457-.108-1.808-1.307-1.967-2.435-.426-3.004-.728-6.026-1.03-8.621zm-13.143-1.083c-.126.49-.173.973-.37 1.382-.374.784-1.066 1.055-1.851.753-1.07-.412-1.138-1.41-1.102-2.37.038-.975.258-2.018 1.356-2.19.473-.074 1.175.435 1.547.876.31.369.292 1.022.42 1.549z"/>
</svg>
