<svg width="2112" height="500" viewBox="0 0 2112 500" fill="none" xmlns="http://www.w3.org/2000/svg">
<g clip-path="url(#clip0)">
<path fill-rule="evenodd" clip-rule="evenodd" d="M26.012 -70.692L518.61 467.518C528.992 478.861 541.85 487.658 556.184 493.223C570.519 498.789 585.944 500.974 601.26 499.608L1818.87 391.025C1835.03 389.584 1850.6 384.229 1864.24 375.425C1877.87 366.62 1889.16 354.629 1897.12 340.488L2111.86 -40.84L206.049 -760.14L5.12299 -170.461C-6.65801 -135.886 1.34999 -97.638 26.012 -70.692V-70.692Z" fill="#38AFD6" fill-opacity="0.2"/>
</g>
<defs>
<clipPath id="clip0">
<rect width="2112" height="500" fill="white"/>
</clipPath>
</defs>
</svg>
