<svg xmlns="http://www.w3.org/2000/svg" xmlns:xlink="http://www.w3.org/1999/xlink" width="117" height="22" viewBox="0 0 117 22">
    <defs>
        <path id="a" d="M0 .703h10.904v21.273H0z"/>
        <path id="c" d="M.145.325h11.65v21.666H.145z"/>
    </defs>
    <g fill="none" fill-rule="evenodd">
        <path fill="#4A4A4A" d="M73.468 21.209V.38h3.855c.682 0 .71-.007.864.638.163.681.253 1.379.397 2.065.197.944.42 1.883.622 2.826.138.644.255 1.292.39 1.937.152.725.32 1.447.471 2.172.136.659.261 1.32.387 1.981.07.358.12.72.2 1.075.02.088.124.156.22.269l.426-1.941c.162-.735.33-1.47.483-2.208.135-.645.245-1.295.383-1.939.145-.684.32-1.362.465-2.046.138-.644.25-1.293.387-1.937.148-.696.312-1.389.47-2.083a.611.611 0 0 1 .01-.041c.223-.769.223-.768 1.03-.768h3.584v20.827c-.98 0-1.958.006-2.935-.012-.086-.002-.204-.158-.245-.266-.043-.112-.01-.252-.01-.38V6.631c0-.206-.02-.411-.12-.625-.072.311-.157.621-.215.935-.134.718-.245 1.438-.38 2.155-.147.769-.31 1.535-.465 2.303-.068.342-.137.685-.196 1.028-.186 1.08-.36 2.162-.555 3.24-.218 1.212-.453 2.422-.685 3.632-.105.55-.207 1.101-.336 1.645-.024.102-.164.249-.255.252-.68.021-1.36.011-2.059.011-.14-.769-.265-1.5-.407-2.228-.147-.753-.313-1.502-.466-2.254a39.927 39.927 0 0 1-.19-1.033c-.186-1.066-.359-2.132-.552-3.196-.219-1.199-.454-2.394-.68-3.592-.175-.922-.346-1.844-.52-2.766-.008-.034-.047-.061-.134-.171-.024.207-.053.337-.053.466 0 4.738.003 9.477.004 14.216 0 .55-.012.56-.545.56h-2.645M55.699.38c1.451 0 2.845-.005 4.238.01.118 0 .313.12.339.22.141.526.238 1.063.352 1.596.164.766.335 1.53.49 2.299.137.672.247 1.35.386 2.02.139.672.303 1.338.453 2.008.073.328.137.658.206.987.223 1.053.45 2.106.667 3.16.041.202.046.412.079.728.13-.177.238-.261.26-.364.138-.658.246-1.322.384-1.98.141-.67.311-1.331.457-2 .134-.615.25-1.235.382-1.851.155-.723.324-1.444.477-2.168.132-.617.251-1.237.376-1.855.176-.865.346-1.73.537-2.591.02-.088.171-.208.262-.21 1.421-.012 2.842-.008 4.299-.008v20.794h-3.198V5.84l-.105-.01c-.076.31-.168.618-.224.932-.136.762-.241 1.529-.384 2.289-.137.727-.31 1.448-.459 2.173-.076.372-.129.749-.2 1.122-.161.837-.333 1.672-.488 2.51-.136.745-.244 1.495-.384 2.238-.143.756-.316 1.506-.464 2.26-.082.414-.161.83-.205 1.249-.061.58-.072.606-.669.606h-1.698L58.928 5.732l-.125.012v15.434h-3.104V.38zM16.947 21.19h-3.07V.403c.154-.008.304-.022.455-.023.74-.002 1.482.036 2.22-.015.421-.029.568.177.684.497.68 1.872 1.367 3.743 2.04 5.62.538 1.497 1.054 3.003 1.591 4.502.218.606.466 1.201.701 1.8l.106-.018V.38c.965 0 1.871-.008 2.776.011.097.002.22.148.276.255.047.091.014.223.014.337V20.62c0 .587 0 .588-.585.588l-1.708.001c-.703 0-.687-.006-.909-.636-.436-1.24-.896-2.474-1.339-3.713-.416-1.16-.816-2.326-1.233-3.486-.439-1.22-.894-2.436-1.334-3.656-.203-.56-.387-1.126-.579-1.69l-.106.01V21.19zM113.078 12.742V.382c.951 0 1.858-.01 2.765.013.096.003.211.177.275.294.042.077.01.195.01.294V20.62c0 .588 0 .588-.575.588h-1.665c-.748 0-.733-.005-.969-.676-.436-1.241-.898-2.473-1.336-3.712-.425-1.2-.825-2.408-1.255-3.606-.364-1.015-.763-2.017-1.13-3.03-.269-.737-.513-1.482-.767-2.224l-.109.02v13.192h-3.092v-.483c0-6.59.004-13.177-.008-19.766 0-.426.1-.576.544-.554.738.037 1.481.039 2.218-.003.355-.02.522.13.62.41.478 1.343.934 2.694 1.421 4.035.532 1.466 1.1 2.92 1.636 4.386.375 1.026.72 2.064 1.085 3.093.058.165.15.317.228.475l.104-.024"/>
        <g transform="translate(0 -.325)">
            <mask id="b" fill="#fff">
                <use xlink:href="#a"/>
            </mask>
            <path fill="#4A4A4A" d="M7.352.705c1.104 0 2.14-.007 3.179.01.11.003.266.134.318.244.063.13.045.305.045.46 0 4.51.033 9.022-.02 13.533-.013 1.229-.054 2.486-.465 3.677-.535 1.548-1.476 2.666-3.144 3.103a7.51 7.51 0 0 1-3.351.104c-1.73-.33-2.896-1.362-3.427-3.085-.283-.92-.481-1.846-.482-2.807C-.001 11.006 0 6.068 0 1.13 0 1.005.017.88.03.706c1.112 0 2.203-.005 3.294.01.084.002.202.136.239.234.042.112.013.253.013.38v14.814c0 .622.039 1.23.339 1.799.322.609 1.106.919 1.774.767.517-.117.954-.292 1.199-.783.11-.22.233-.451.266-.688.082-.587.159-1.18.16-1.771.014-4.725.008-9.45.009-14.174 0-.181.017-.361.029-.59" mask="url(#b)"/>
        </g>
        <path fill="#4A4A4A" d="M94.135 10.794l-.093.004c.08 1.201.157 2.402.24 3.602.068 1.012.275 2 .716 2.911.337.695.832 1.223 1.725 1.206.84-.016 1.31-.482 1.677-1.154.552-1.009.66-2.133.811-3.235.127-.93.135-1.88.157-2.824.012-.514-.056-1.03-.089-1.546-.065-1.003-.13-2.006-.197-3.008a6.486 6.486 0 0 0-.715-2.559c-.31-.603-.799-1.009-1.514-1.09-.896-.104-1.569.626-1.887 1.302-.602 1.284-.69 2.671-.818 4.044-.072.776-.013 1.564-.013 2.347zm-3.428-.008c0-.868-.063-1.74.013-2.602.172-1.968.516-3.91 1.551-5.636.714-1.19 1.7-2.059 3.122-2.378 2.755-.616 4.908.546 6.076 2.958.557 1.15.836 2.37 1.053 3.625.343 1.985.384 3.981.258 5.972-.083 1.31-.373 2.61-.635 3.901-.262 1.29-.819 2.461-1.709 3.445-.754.834-1.685 1.316-2.817 1.512-1.683.292-3.118-.13-4.369-1.247a5.455 5.455 0 0 1-1.467-2.183c-.375-1.01-.695-2.063-.869-3.126-.185-1.14-.176-2.314-.245-3.474-.015-.255-.002-.51-.002-.767h.04zM49.7 10.818c.042-.004.085-.008.128-.01l-.444-4.555a5.345 5.345 0 0 0-.703-2.165c-.777-1.356-2.401-1.272-3.124-.048-.617 1.048-.77 2.201-.934 3.35a17.478 17.478 0 0 0-.163 2.927c.04 1.497.184 2.99.276 4.486.056.934.29 1.826.724 2.645.572 1.083 1.605 1.396 2.553.801.437-.274.773-.83.979-1.33.525-1.274.59-2.654.699-4.01.054-.694.008-1.394.008-2.09m-8.752.036c.08-1.229.086-2.428.253-3.603.25-1.747.618-3.473 1.647-4.974.73-1.064 1.654-1.819 2.945-2.107 2.813-.627 4.968.578 6.123 3.065a11.706 11.706 0 0 1 1.062 4.107c.079 1.1.258 2.197.257 3.295-.002 1.184-.138 2.37-.26 3.55-.077.752-.184 1.51-.371 2.241-.482 1.876-1.217 3.617-3.028 4.617-1.03.57-2.123.752-3.32.548-1.267-.216-2.272-.78-3.07-1.758-.63-.77-1.041-1.65-1.345-2.592a14.676 14.676 0 0 1-.713-3.968c-.032-.819-.12-1.636-.18-2.42"/>
        <g transform="translate(27 -.325)">
            <mask id="d" fill="#fff">
                <use xlink:href="#c"/>
            </mask>
            <path fill="#4A4A4A" d="M.168 11.118c0-.683-.06-1.372.014-2.047a44.61 44.61 0 0 1 .493-3.293c.21-1.154.657-2.219 1.3-3.207C2.596 1.62 3.438.945 4.49.592 5.476.262 6.498.254 7.535.48c1.719.373 2.81 1.46 3.472 3 .299.695.43 1.467.59 2.214.099.453.11.926.159 1.39.03.29-.11.417-.391.417-.84 0-1.68-.007-2.52.005-.282.004-.31-.147-.33-.374-.075-.809-.152-1.615-.47-2.383-.34-.817-1.052-1.387-1.908-1.326-.897.064-1.4.632-1.687 1.376-.254.655-.404 1.357-.542 2.05-.413 2.072-.39 4.177-.282 6.27.068 1.351.162 2.728.655 4.02.22.578.505 1.138 1.062 1.491.798.506 1.966.281 2.49-.48.438-.635.653-1.35.708-2.117.04-.565.079-1.13.155-1.69.014-.11.195-.28.304-.283.824-.023 1.65-.023 2.475 0 .11.003.309.175.313.274.062 2.053-.24 4.017-1.534 5.703-.795 1.036-1.83 1.656-3.144 1.87-2.015.327-3.634-.29-4.9-1.866-.686-.854-1.076-1.85-1.38-2.895-.575-1.973-.725-3.987-.662-6.027" mask="url(#d)"/>
        </g>
    </g>
</svg>
