<svg xmlns="http://www.w3.org/2000/svg" xmlns:xlink="http://www.w3.org/1999/xlink" width="132" height="30" viewBox="0 0 132 30">
    <defs>
        <path id="a" d="M0 .307h31.902V17H0z"/>
    </defs>
    <g fill="none" fill-rule="evenodd">
        <path fill="#4A4A4A" d="M115.652 9.537v8.865c0 .718.15.843.87.788.856-.067 1.601-.39 2.192-1.006.832-.865 1.636-1.757 2.44-2.65.186-.208.33-.458.477-.7.186-.304.084-.531-.25-.61-.418-.096-.848-.147-1.27-.222-.453-.08-.629-.348-.583-.88.038-.42.204-.554.662-.58 2.692-.143 5.385-.292 8.077-.443.242-.014.482-.061.723-.082.406-.035.577.122.646.582.07.459-.088.756-.458.834-.395.084-.813.104-1.186.245-.764.287-1.572.536-2.242.98-1.21.805-2.344 1.724-3.483 2.629-.503.398-.53.652-.149 1.179 1.658 2.295 3.344 4.57 5.004 6.863.764 1.054 1.816 1.567 3.07 1.745.252.036.504.087.754.14.397.084.541.333.482.813-.058.472-.239.62-.665.622-3.48.002-6.96.01-10.44.023-.36 0-.567-.174-.627-.582-.065-.456.078-.77.397-.852.221-.057.447-.1.67-.155.445-.112.49-.203.253-.61a10.468 10.468 0 0 0-.572-.882c-1.033-1.433-2.074-2.861-3.109-4.292-.255-.352-.555-.62-1.016-.655-.318-.023-.525.09-.592.412-.03.145-.065.293-.063.439.017 1.389.015 2.779.073 4.167.044 1.052.415 1.388 1.473 1.503.161.018.32.052.482.064.245.019.55.013.578.315.03.33-.032.676-.104 1.004-.015.068-.25.123-.384.123-2.94-.011-5.88-.033-8.822-.045-.445-.001-.89.029-1.334.067-.267.022-.396-.106-.48-.332-.24-.643.032-1.07.708-1.124.31-.025.617-.067.923-.116.61-.1.971-.465 1.037-1.072.067-.616.118-1.236.118-1.855 0-6.14-.03-12.28-.007-18.418.005-1.097-.35-1.83-1.384-2.24-.46-.182-.612-.584-.44-1.018a.695.695 0 0 1 .372-.361 563.5 563.5 0 0 1 6.242-2.083c.206-.068.443-.087.66-.065.274.027.391.193.384.503-.062 3.007-.107 6.016-.157 9.024a.834.834 0 0 0 .05 0"/>
        <g transform="translate(0 12.258)">
            <mask id="b" fill="#fff">
                <use xlink:href="#a"/>
            </mask>
            <path fill="#4A4A4A" d="M12.198 10.059l.151-.03c.03-.04.067-.076.089-.121.692-1.385 1.42-2.754 2.053-4.166.217-.484.268-1.072.273-1.614.01-.897-.857-1.973-1.713-2.052a21.459 21.459 0 0 0-3.305-.062c-.989.062-1.167.363-.76 1.257 1.036 2.279 2.137 4.527 3.212 6.788m3.887-2.738c-1.032 2.029-2.028 3.985-3.02 5.944-.536 1.056-1.078 2.11-1.593 3.178-.161.335-.404.502-.743.535-.28.028-.568.03-.847 0-.341-.034-.569-.213-.73-.547-2.056-4.259-4.135-8.505-6.184-12.767-.486-1.01-1.179-1.668-2.322-1.839C.037 1.735-.207.967.202.495.301.38.531.334.701.336 3.48.357 6.259.42 9.037.413c4.277-.01 8.554-.068 12.83-.106.462-.004.58.1.635.579.059.513-.093.775-.483.866a87.88 87.88 0 0 0-1.684.41c-.291.075-.39.276-.308.554.092.308.176.624.31.916.957 2.08 1.925 4.154 2.891 6.23.022.047.055.09.114.184.075-.148.141-.258.188-.377.794-2.002 1.592-4.004 2.374-6.01.126-.323.187-.673.27-1.013.063-.264-.036-.46-.296-.538a27.838 27.838 0 0 0-1.245-.335c-.381-.093-.531-.364-.469-.876.055-.456.21-.586.643-.586 2.171.002 4.342-.01 6.512.005a.619.619 0 0 1 .454.283c.307.599.051 1.097-.613 1.18-1.165.15-1.923.764-2.412 1.83-1.946 4.25-3.933 8.48-5.876 12.73-.265.58-.691.655-1.205.655-.497-.002-.913-.067-1.178-.628-1.377-2.912-2.797-5.801-4.203-8.697-.046-.095-.107-.185-.201-.348" mask="url(#b)"/>
        </g>
        <path fill="#4A4A4A" d="M58.242 22.25l.134.009c.71-1.48 1.444-2.947 2.112-4.445.184-.414.226-.917.233-1.381.017-1.005-.873-2.1-1.858-2.18a25.043 25.043 0 0 0-3.344-.023c-.76.04-.898.334-.658 1.056.097.293.21.583.344.86a774.491 774.491 0 0 0 2.406 4.937c.195.396.42.778.631 1.167m3.807-2.712c-.207.387-.396.723-.57 1.066-1.347 2.657-2.704 5.308-4.024 7.977-.28.566-.717.616-1.234.618-.514.002-.903-.103-1.167-.651-2.02-4.216-4.073-8.417-6.12-12.62-.135-.278-.302-.54-.46-.807-.409-.691-1.094-.913-1.819-1.078-.602-.137-.782-.444-.653-1.047.074-.343.252-.477.624-.472 3.535.046 7.07.102 10.604.097 3.535-.005 7.07-.077 10.604-.12.436-.004.571.123.608.563.048.56-.102.812-.502.894-.5.103-1.005.202-1.495.343-.553.159-.628.284-.422.817.375.965.77 1.925 1.201 2.868.611 1.335 1.262 2.652 1.896 3.976.04.083.091.16.18.318.348-.82.691-1.57.988-2.338a140.034 140.034 0 0 0 1.667-4.465c.356-1.024.264-1.13-.808-1.392-.157-.038-.313-.083-.473-.107-.25-.037-.529-.077-.519-.39.011-.334.085-.673.188-.992.024-.071.287-.09.44-.088 1.538.02 3.075.06 4.612.07.607.005 1.213-.052 1.82-.076.385-.014.542.143.604.586.061.435-.1.763-.42.845-.132.033-.263.067-.397.08-1.135.124-1.838.773-2.303 1.786-1.954 4.246-3.936 8.479-5.884 12.727-.215.468-.518.656-.993.656h-.405c-.476.002-.776-.193-.995-.654-1.388-2.92-2.809-5.825-4.22-8.735-.033-.068-.078-.131-.153-.255"/>
        <path fill="#4A4A4A" d="M89.057 21.39c-.046-.714-.074-1.428-.144-2.139a11.35 11.35 0 0 0-.232-1.353c-.238-1.059-.583-2.078-1.287-2.932-1.214-1.474-3.216-1.474-4.38.035a4.924 4.924 0 0 0-.796 1.53c-.697 2.257-.625 4.546-.115 6.83.25 1.117.668 2.165 1.48 3.007 1.487 1.543 3.806 1.175 4.734-.749.116-.24.212-.495.293-.75.356-1.133.425-2.3.447-3.48M85.27 29.18c-2.017-.062-3.71-.34-5.293-1.102-3.062-1.473-4.615-3.917-4.579-7.316.04-3.576 1.806-6.102 4.982-7.586 3.437-1.607 6.964-1.587 10.4.013 3.482 1.621 4.807 4.743 4.583 8.06-.28 4.146-3.038 6.612-6.723 7.517-.587.145-1.188.245-1.789.314-.615.072-1.237.08-1.58.1M37.63 17.447c0-.01 0-.018.002-.026.39 0 .785.03 1.172-.008a8.864 8.864 0 0 0 1.503-.26c.194-.054.428-.286.477-.48.217-.852.02-2.056-1.177-2.54-1.692-.683-4.055.547-4.464 2.323-.135.586.038.854.632.902.617.05 1.237.06 1.856.089zm2.366 1.747c-1.471 0-2.942-.011-4.412.003-.768.008-.835.096-.827.843.032 3.102 2.4 5.586 5.509 5.73a9.854 9.854 0 0 0 2.129-.126c1.024-.18 1.824-.77 2.446-1.6.279-.373.557-.416.952-.153.386.258.496.63.282 1.005-1.006 1.765-2.428 3.086-4.361 3.728-3.416 1.135-6.687.799-9.563-1.46-2.26-1.773-3.047-4.255-2.766-7.063.443-4.425 3.963-7.497 8.243-7.935 1.748-.178 3.456-.054 5.053.733 2.005.989 3.127 2.59 3.197 4.86.03.978-.326 1.373-1.31 1.39-1.523.027-3.048.007-4.572.007v.038z"/>
        <path fill="#4A4A4A" d="M99.457 28.643l-5.083.134c-.47.012-.624-.141-.658-.645-.03-.486.13-.72.544-.772.335-.043.672-.064 1.004-.116.647-.104.936-.351 1.031-1.01.093-.636.133-1.286.138-1.931.016-2.226.007-4.452.006-6.678 0-.188-.02-.377-.015-.565.024-.863-.337-1.478-1.144-1.815-.358-.15-.557-.401-.536-.812.018-.35.141-.553.514-.66 2.062-.581 4.09-1.261 6.014-2.224.187-.094.52 0 .734.109.108.055.144.338.138.516-.014.444-.089.886-.104 1.329-.014.446.283.606.657.364.544-.351 1.07-.731 1.616-1.075.717-.45 1.486-.764 2.35-.78 1.305-.023 2.35.787 2.506 1.939.194 1.428-.486 2.526-1.807 2.89-.94.26-1.8.134-2.59-.49a6.276 6.276 0 0 0-1.305-.795c-.577-.26-.948-.078-1.104.533a6.075 6.075 0 0 0-.195 1.475c-.004 2.63.021 5.26.038 7.89.001.122.01.243.027.363.155 1.09.435 1.348 1.535 1.43.403.03.807.058 1.21.103.375.04.52.296.482.817-.033.457-.174.612-.568.603-1.767-.04-3.533-.082-5.435-.127"/>
    </g>
</svg>
