<svg xmlns="http://www.w3.org/2000/svg" width="15" height="15" viewBox="0 0 15 15">
    <path fill="#2F374B" fill-rule="nonzero" d="M14.734 3.168l-2.466 2.466-2.157-.77-.771-2.157L11.806.24a4.645 4.645 0 0 0-5.912 5.793c-.067.053-.132.11-.194.172L.636 11.269a2.17 2.17 0 1 0 3.07 3.07L8.77 9.274c.062-.062.118-.127.171-.194a4.645 4.645 0 0 0 5.793-5.912z"/>
</svg>
