<svg xmlns="http://www.w3.org/2000/svg" width="58" height="58" viewBox="0 0 58 58">
    <g fill="none" fill-rule="evenodd" transform="translate(1 1)">
        <circle cx="28" cy="28" r="28" stroke="#FFF"/>
        <path fill="#FFF" d="M24.526 17.675l13.103 7.742a3 3 0 0 1 0 5.166l-13.103 7.742A3 3 0 0 1 20 35.743V20.257a3 3 0 0 1 4.526-2.582z" opacity=".798"/>
    </g>
</svg>
