<svg xmlns="http://www.w3.org/2000/svg" width="669" height="598" viewBox="0 0 669 598">
    <path fill="#FF9B77" fill-rule="evenodd" d="M-55.663-2.645l664.5 40.006c34.05 2.05 60.285 30.829 59.181 64.923l-9.32 288.036c-.916 28.288-20.583 52.493-48.084 59.18L-6.516 599.538c-33.81 8.22-67.88-12.525-76.1-46.334a63 63 0 0 1-1.585-9.885l-38.05-478.08C-125.01 30.554-99.13.2-64.447-2.56a63 63 0 0 1 8.784-.085z"/>
</svg>
