<svg xmlns="http://www.w3.org/2000/svg" width="46" height="46" viewBox="0 0 46 46">
    <g fill="none" fill-rule="evenodd">
        <path fill="#FFF" fill-rule="nonzero" d="M23 45.5C10.574 45.5.5 35.426.5 23S10.574.5 23 .5 45.5 10.574 45.5 23 35.426 45.5 23 45.5zm0-1c11.874 0 21.5-9.626 21.5-21.5S34.874 1.5 23 1.5 1.5 11.126 1.5 23 11.126 44.5 23 44.5zm6.765-20.84c.036 4.174 3.66 5.562 3.702 5.582-.032.096-.58 1.98-1.91 3.923-1.151 1.682-2.343 3.355-4.223 3.39-1.848.035-2.442-1.096-4.554-1.096-2.113 0-2.774 1.061-4.521 1.131-1.814.067-3.196-1.816-4.355-3.492-2.371-3.424-4.182-9.679-1.748-13.902 1.206-2.097 3.365-3.424 5.707-3.459 1.782-.032 3.464 1.2 4.552 1.2 1.09 0 3.135-1.482 5.284-1.264.899.037 3.423.362 5.045 2.734-.13.083-3.014 1.76-2.98 5.253zM26.29 13.406c-.964 1.166-2.544 2.073-4.093 1.953-.21-1.585.572-3.236 1.465-4.269.996-1.166 2.677-2.034 4.065-2.09.176 1.617-.473 3.238-1.437 4.406z"/>
    </g>
</svg>
