<svg xmlns="http://www.w3.org/2000/svg" width="100" height="68" viewBox="0 0 100 68">
    <g fill="none" fill-rule="evenodd">
        <path fill="#F86649" d="M34.411 25.845h32.974V2.941H34.411v22.904zm-2.964 0V2.941h-1.213a1.477 1.477 0 0 1-1.483-1.47c0-.813.664-1.471 1.483-1.471h41.33c.818 0 1.482.658 1.482 1.47 0 .813-.664 1.471-1.483 1.471H70.35v22.904h1.213c.82 0 1.483.659 1.483 1.47 0 .813-.664 1.471-1.483 1.471h-41.33a1.477 1.477 0 0 1-1.482-1.47c0-.812.664-1.47 1.483-1.47h1.213zM74.945 65.06l-9.078-29.143H36.828L27.751 65.06h47.194zM76.955 68H25.74c-.998 0-1.71-.959-1.416-1.905l9.993-32.083a1.481 1.481 0 0 1 1.416-1.037h31.227c.65 0 1.224.42 1.416 1.037l9.994 32.083c.294.946-.419 1.905-1.417 1.905zM21.562 33.109c0-2.88-2.352-5.214-5.254-5.214-2.905 0-5.258 2.333-5.258 5.214 0 2.88 2.353 5.213 5.258 5.213 2.902 0 5.254-2.333 5.254-5.213zm2.965 0c0 4.505-3.68 8.154-8.22 8.154-4.542 0-8.222-3.649-8.222-8.154 0-4.506 3.68-8.155 8.223-8.155 4.54 0 8.22 3.65 8.22 8.155zM2.965 59.399c0 .813-.664 1.471-1.483 1.471A1.477 1.477 0 0 1 0 59.4c0-8.681 6.97-15.73 15.58-15.73 3.822 0 7.433 1.395 10.248 3.88.612.54.667 1.47.122 2.076a1.49 1.49 0 0 1-2.093.12 12.456 12.456 0 0 0-8.276-3.135c-6.96 0-12.616 5.72-12.616 12.789zm86.882-26.29c0-2.88-2.352-5.214-5.256-5.214-2.903 0-5.256 2.333-5.256 5.214 0 2.88 2.353 5.213 5.256 5.213 2.904 0 5.256-2.333 5.256-5.213zm2.965 0c0 4.505-3.68 8.154-8.22 8.154-4.541 0-8.222-3.65-8.222-8.154 0-4.505 3.68-8.155 8.221-8.155 4.54 0 8.221 3.65 8.221 8.155zM76.897 48.85a1.49 1.49 0 0 1-2.062-.376 1.463 1.463 0 0 1 .38-2.045 15.823 15.823 0 0 1 8.958-2.76C92.915 43.67 100 50.713 100 59.4c0 .813-.664 1.471-1.482 1.471a1.477 1.477 0 0 1-1.483-1.47c0-7.065-5.759-12.79-12.862-12.79-2.639 0-5.153.79-7.276 2.24zM48.787 21.97c0 .812-.664 1.47-1.482 1.47a1.477 1.477 0 0 1-1.483-1.47V15.73c0-.812.664-1.47 1.483-1.47.818 0 1.482.658 1.482 1.47v6.239zm5.39 0c0 .812-.663 1.47-1.482 1.47a1.477 1.477 0 0 1-1.482-1.47V8.6c0-.812.664-1.47 1.482-1.47.82 0 1.483.658 1.483 1.47V21.97zm6.29 0c0 .812-.664 1.47-1.482 1.47a1.477 1.477 0 0 1-1.483-1.47v-4.457c0-.812.664-1.47 1.483-1.47.818 0 1.482.658 1.482 1.47v4.457zm-16.172-.892c0 .812-.664 1.47-1.483 1.47a1.477 1.477 0 0 1-1.482-1.47V9.491c0-.812.663-1.47 1.482-1.47s1.483.658 1.483 1.47v11.586z"/>
    </g>
</svg>
